%YAML 1.1
%TAG !u! tag:unity3d.com,2011:
--- !u!74 &7400000
AnimationClip:
  m_ObjectHideFlags: 0
  m_PrefabParentObject: {fileID: 0}
  m_PrefabInternal: {fileID: 0}
  m_Name: PCReaction
  serializedVersion: 6
  m_Legacy: 0
  m_Compressed: 0
  m_UseHighQualityCurve: 1
  m_RotationCurves:
  - curve:
      serializedVersion: 2
      m_Curve:
      - time: 0
        value: {x: 0, y: 0, z: .00301018101, w: -.99999547}
        inSlope: {x: 0, y: 0, z: .184307396, w: .00225365162}
        outSlope: {x: 0, y: 0, z: .184307396, w: .00225365162}
        tangentMode: 0
      - time: .100000001
        value: {x: 0, y: 0, z: .0214409214, w: -.999770105}
        inSlope: {x: 0, y: 0, z: .184273362, w: .00395208597}
        outSlope: {x: 0, y: 0, z: .184273362, w: .00395208597}
        tangentMode: 0
      - time: .200000003
        value: {x: 0, y: 0, z: .039864853, w: -.999205053}
        inSlope: {x: 0, y: 0, z: .184170395, w: .00734776212}
        outSlope: {x: 0, y: 0, z: .184170395, w: .00734776212}
        tangentMode: 0
      - time: .300000012
        value: {x: 0, y: 0, z: .058275003, w: -.998300552}
        inSlope: {x: 0, y: 0, z: .184101477, w: .00904500391}
        outSlope: {x: 0, y: 0, z: .184101477, w: .00904500391}
        tangentMode: 0
      m_PreInfinity: 2
      m_PostInfinity: 2
    path: 
  m_CompressedRotationCurves: []
  m_PositionCurves: []
  m_ScaleCurves: []
  m_FloatCurves: []
  m_PPtrCurves:
  - curve:
    - time: 0
      value: {fileID: 21300000, guid: 0336ea4dd8830451d80355a895f26546, type: 3}
    - time: .100000001
      value: {fileID: 21300000, guid: 63af44bcf38394d558b9f2f6a7bca054, type: 3}
    - time: .300000012
      value: {fileID: 21300000, guid: 63af44bcf38394d558b9f2f6a7bca054, type: 3}
    attribute: m_Sprite
    path: 
    classID: 212
    script: {fileID: 0}
  m_SampleRate: 10
  m_WrapMode: 0
  m_Bounds:
    m_Center: {x: 0, y: 0, z: 0}
    m_Extent: {x: 0, y: 0, z: 0}
  m_ClipBindingConstant:
    genericBindings:
    - path: 0
      attribute: 2
      script: {fileID: 0}
      classID: 4
      customType: 0
      isPPtrCurve: 0
    - path: 0
      attribute: 0
      script: {fileID: 0}
      classID: 212
      customType: 23
      isPPtrCurve: 1
    pptrCurveMapping:
    - {fileID: 21300000, guid: 0336ea4dd8830451d80355a895f26546, type: 3}
    - {fileID: 21300000, guid: 63af44bcf38394d558b9f2f6a7bca054, type: 3}
    - {fileID: 21300000, guid: 63af44bcf38394d558b9f2f6a7bca054, type: 3}
  m_AnimationClipSettings:
    serializedVersion: 2
    m_StartTime: 0
    m_StopTime: .400000006
    m_OrientationOffsetY: 0
    m_Level: 0
    m_CycleOffset: 0
    m_LoopTime: 1
    m_LoopBlend: 0
    m_LoopBlendOrientation: 0
    m_LoopBlendPositionY: 0
    m_LoopBlendPositionXZ: 0
    m_KeepOriginalOrientation: 0
    m_KeepOriginalPositionY: 1
    m_KeepOriginalPositionXZ: 0
    m_HeightFromFeet: 0
    m_Mirror: 0
  m_EditorCurves:
  - curve:
      serializedVersion: 2
      m_Curve:
      - time: 0
        value: 0
        inSlope: 0
        outSlope: 0
        tangentMode: 0
      - time: .100000001
        value: 0
        inSlope: 0
        outSlope: 0
        tangentMode: 0
      - time: .200000003
        value: 0
        inSlope: 0
        outSlope: 0
        tangentMode: 0
      - time: .300000012
        value: 0
        inSlope: 0
        outSlope: 0
        tangentMode: 0
      m_PreInfinity: 2
      m_PostInfinity: 2
    attribute: m_LocalRotation.x
    path: 
    classID: 4
    script: {fileID: 0}
  - curve:
      serializedVersion: 2
      m_Curve:
      - time: 0
        value: 0
        inSlope: 0
        outSlope: 0
        tangentMode: 0
      - time: .100000001
        value: 0
        inSlope: 0
        outSlope: 0
        tangentMode: 0
      - time: .200000003
        value: 0
        inSlope: 0
        outSlope: 0
        tangentMode: 0
      - time: .300000012
        value: 0
        inSlope: 0
        outSlope: 0
        tangentMode: 0
      m_PreInfinity: 2
      m_PostInfinity: 2
    attribute: m_LocalRotation.y
    path: 
    classID: 4
    script: {fileID: 0}
  - curve:
      serializedVersion: 2
      m_Curve:
      - time: 0
        value: .00301018101
        inSlope: .184307396
        outSlope: .184307396
        tangentMode: 0
      - time: .100000001
        value: .0214409214
        inSlope: .184273362
        outSlope: .184273362
        tangentMode: 0
      - time: .200000003
        value: .039864853
        inSlope: .184170395
        outSlope: .184170395
        tangentMode: 0
      - time: .300000012
        value: .058275003
        inSlope: .184101477
        outSlope: .184101477
        tangentMode: 0
      m_PreInfinity: 2
      m_PostInfinity: 2
    attribute: m_LocalRotation.z
    path: 
    classID: 4
    script: {fileID: 0}
  - curve:
      serializedVersion: 2
      m_Curve:
      - time: 0
        value: -.99999547
        inSlope: .00225365162
        outSlope: .00225365162
        tangentMode: 0
      - time: .100000001
        value: -.999770105
        inSlope: .00395208597
        outSlope: .00395208597
        tangentMode: 0
      - time: .200000003
        value: -.999205053
        inSlope: .00734776212
        outSlope: .00734776212
        tangentMode: 0
      - time: .300000012
        value: -.998300552
        inSlope: .00904500391
        outSlope: .00904500391
        tangentMode: 0
      m_PreInfinity: 2
      m_PostInfinity: 2
    attribute: m_LocalRotation.w
    path: 
    classID: 4
    script: {fileID: 0}
  m_EulerEditorCurves:
  - curve:
      serializedVersion: 2
      m_Curve:
      - time: 0
        value: 0
        inSlope: 0
        outSlope: 0
        tangentMode: 10
      - time: .300000012
        value: 0
        inSlope: 0
        outSlope: 0
        tangentMode: 10
      m_PreInfinity: 2
      m_PostInfinity: 2
    attribute: localEulerAnglesBaked.x
    path: 
    classID: 4
    script: {fileID: 0}
  - curve:
      serializedVersion: 2
      m_Curve:
      - time: 0
        value: 0
        inSlope: 0
        outSlope: 0
        tangentMode: 10
      - time: .300000012
        value: 0
        inSlope: 0
        outSlope: 0
        tangentMode: 10
      m_PreInfinity: 2
      m_PostInfinity: 2
    attribute: localEulerAnglesBaked.y
    path: 
    classID: 4
    script: {fileID: 0}
  - curve:
      serializedVersion: 2
      m_Curve:
      - time: 0
        value: 359.655029
        inSlope: -21.1222324
        outSlope: -21.1222324
        tangentMode: 10
      - time: .300000012
        value: 353.318359
        inSlope: -21.1222324
        outSlope: -21.1222324
        tangentMode: 10
      m_PreInfinity: 2
      m_PostInfinity: 2
    attribute: localEulerAnglesBaked.z
    path: 
    classID: 4
    script: {fileID: 0}
  m_HasGenericRootTransform: 1
  m_HasMotionFloatCurves: 0
  m_GenerateMotionCurves: 0
  m_Events: []
