%YAML 1.1
%TAG !u! tag:unity3d.com,2011:
--- !u!74 &7400000
AnimationClip:
  m_ObjectHideFlags: 0
  m_PrefabParentObject: {fileID: 0}
  m_PrefabInternal: {fileID: 0}
  m_Name: OrangeWalk
  serializedVersion: 6
  m_Legacy: 0
  m_Compressed: 0
  m_UseHighQualityCurve: 1
  m_RotationCurves: []
  m_CompressedRotationCurves: []
  m_PositionCurves:
  - curve:
      serializedVersion: 2
      m_Curve:
      - time: 0
        value: {x: -1.847, y: .5, z: 0}
        inSlope: {x: 18.4699993, y: -.0999999046, z: 0}
        outSlope: {x: 18.4699993, y: -.0999999046, z: 0}
        tangentMode: 0
      - time: .100000001
        value: {x: 0, y: .49000001, z: 0}
        inSlope: {x: 9.23499966, y: -.024999978, z: 0}
        outSlope: {x: 9.23499966, y: -.024999978, z: 0}
        tangentMode: 0
      - time: .300000012
        value: {x: 0, y: .5, z: 0}
        inSlope: {x: 0, y: -.0249999817, z: 0}
        outSlope: {x: 0, y: -.0249999817, z: 0}
        tangentMode: 0
      - time: .400000006
        value: {x: 0, y: .49000001, z: 0}
        inSlope: {x: 0, y: 0, z: 0}
        outSlope: {x: 0, y: 0, z: 0}
        tangentMode: 0
      - time: .5
        value: {x: 0, y: .5, z: 0}
        inSlope: {x: 0, y: .0999999121, z: 0}
        outSlope: {x: 0, y: .0999999121, z: 0}
        tangentMode: 0
      m_PreInfinity: 2
      m_PostInfinity: 2
    path: 
  m_ScaleCurves: []
  m_FloatCurves: []
  m_PPtrCurves:
  - curve:
    - time: 0
      value: {fileID: 21300000, guid: da817e13c004f449197f2c0b50eb9131, type: 3}
    - time: .100000001
      value: {fileID: 21300000, guid: 3aa3b3bc318fd436da91f5325b3aea8f, type: 3}
    - time: .200000003
      value: {fileID: 21300000, guid: da817e13c004f449197f2c0b50eb9131, type: 3}
    - time: .300000012
      value: {fileID: 21300000, guid: e1590c50da1e74fb8aca2f7c41b146af, type: 3}
    - time: .400000006
      value: {fileID: 21300000, guid: e3e6aa99f8be34341b660fdc986b0154, type: 3}
    - time: .5
      value: {fileID: 21300000, guid: e1590c50da1e74fb8aca2f7c41b146af, type: 3}
    attribute: m_Sprite
    path: 
    classID: 212
    script: {fileID: 0}
  m_SampleRate: 20
  m_WrapMode: 0
  m_Bounds:
    m_Center: {x: 0, y: 0, z: 0}
    m_Extent: {x: 0, y: 0, z: 0}
  m_ClipBindingConstant:
    genericBindings:
    - path: 0
      attribute: 1
      script: {fileID: 0}
      classID: 4
      customType: 0
      isPPtrCurve: 0
    - path: 0
      attribute: 0
      script: {fileID: 0}
      classID: 212
      customType: 23
      isPPtrCurve: 1
    pptrCurveMapping:
    - {fileID: 21300000, guid: da817e13c004f449197f2c0b50eb9131, type: 3}
    - {fileID: 21300000, guid: 3aa3b3bc318fd436da91f5325b3aea8f, type: 3}
    - {fileID: 21300000, guid: da817e13c004f449197f2c0b50eb9131, type: 3}
    - {fileID: 21300000, guid: e1590c50da1e74fb8aca2f7c41b146af, type: 3}
    - {fileID: 21300000, guid: e3e6aa99f8be34341b660fdc986b0154, type: 3}
    - {fileID: 21300000, guid: e1590c50da1e74fb8aca2f7c41b146af, type: 3}
  m_AnimationClipSettings:
    serializedVersion: 2
    m_StartTime: 0
    m_StopTime: .550000012
    m_OrientationOffsetY: 0
    m_Level: 0
    m_CycleOffset: 0
    m_LoopTime: 1
    m_LoopBlend: 0
    m_LoopBlendOrientation: 0
    m_LoopBlendPositionY: 0
    m_LoopBlendPositionXZ: 0
    m_KeepOriginalOrientation: 0
    m_KeepOriginalPositionY: 1
    m_KeepOriginalPositionXZ: 0
    m_HeightFromFeet: 0
    m_Mirror: 0
  m_EditorCurves:
  - curve:
      serializedVersion: 2
      m_Curve:
      - time: 0
        value: -1.847
        inSlope: 18.4699993
        outSlope: 18.4699993
        tangentMode: 10
      - time: .100000001
        value: 0
        inSlope: 9.23499966
        outSlope: 9.23499966
        tangentMode: 10
      - time: .300000012
        value: 0
        inSlope: 0
        outSlope: 0
        tangentMode: 10
      - time: .400000006
        value: 0
        inSlope: 0
        outSlope: 0
        tangentMode: 10
      - time: .5
        value: 0
        inSlope: 0
        outSlope: 0
        tangentMode: 10
      m_PreInfinity: 2
      m_PostInfinity: 2
    attribute: m_LocalPosition.x
    path: 
    classID: 4
    script: {fileID: 0}
  - curve:
      serializedVersion: 2
      m_Curve:
      - time: 0
        value: .5
        inSlope: -.0999999046
        outSlope: -.0999999046
        tangentMode: 10
      - time: .100000001
        value: .49000001
        inSlope: -.024999978
        outSlope: -.024999978
        tangentMode: 10
      - time: .300000012
        value: .5
        inSlope: -.0249999817
        outSlope: -.0249999817
        tangentMode: 10
      - time: .400000006
        value: .49000001
        inSlope: 0
        outSlope: 0
        tangentMode: 10
      - time: .5
        value: .5
        inSlope: .0999999121
        outSlope: .0999999121
        tangentMode: 10
      m_PreInfinity: 2
      m_PostInfinity: 2
    attribute: m_LocalPosition.y
    path: 
    classID: 4
    script: {fileID: 0}
  - curve:
      serializedVersion: 2
      m_Curve:
      - time: 0
        value: 0
        inSlope: 0
        outSlope: 0
        tangentMode: 10
      - time: .100000001
        value: 0
        inSlope: 0
        outSlope: 0
        tangentMode: 10
      - time: .300000012
        value: 0
        inSlope: 0
        outSlope: 0
        tangentMode: 10
      - time: .400000006
        value: 0
        inSlope: 0
        outSlope: 0
        tangentMode: 10
      - time: .5
        value: 0
        inSlope: 0
        outSlope: 0
        tangentMode: 10
      m_PreInfinity: 2
      m_PostInfinity: 2
    attribute: m_LocalPosition.z
    path: 
    classID: 4
    script: {fileID: 0}
  m_EulerEditorCurves: []
  m_HasGenericRootTransform: 1
  m_HasMotionFloatCurves: 0
  m_GenerateMotionCurves: 0
  m_Events: []
